{
  "project_info": {
    "project_number": "391395320732",
    "project_id": "misviajes-14dd1",
    "storage_bucket": "misviajes-14dd1.appspot.com"
  },
  "client": [
    {
      "client_info": {
        "mobilesdk_app_id": "1:391395320732:android:614a2fad6b8f1f6e5d5e59",
        "android_client_info": {
          "package_name": "com.example.misviajes"
        }
      },
      "oauth_client": [
        {
          "client_id": "391395320732-lpft5pfqm5e6damhp7e1lhs5937k773k.apps.googleusercontent.com",
          "client_type": 3
        }
      ],
      "api_key": [
        {
          "current_key": "AIzaSyD6kMLREyIg9zf780KEVqVjEBy1fWeDg24"
        }
      ],
      "services": {
        "appinvite_service": {
          "other_platform_oauth_client": [
            {
              "client_id": "391395320732-lpft5pfqm5e6damhp7e1lhs5937k773k.apps.googleusercontent.com",
              "client_type": 3
            }
          ]
        }
      }
    }
  ],
  "configuration_version": "1"
}